%YAML 1.1
%TAG !u! tag:unity3d.com,2011:
--- !u!114 &11400000
MonoBehaviour:
  m_ObjectHideFlags: 0
  m_CorrespondingSourceObject: {fileID: 0}
  m_PrefabInstance: {fileID: 0}
  m_PrefabAsset: {fileID: 0}
  m_GameObject: {fileID: 0}
  m_Enabled: 1
  m_EditorHideFlags: 0
  m_Script: {fileID: 11500000, guid: e90911e410742a1498a167540c7865bf, type: 3}
  m_Name: Refresco
  m_EditorClassIdentifier: 
  leftHand:
    inputSource: 1
    thumbFingerMovementType: 0
    indexFingerMovementType: 0
    middleFingerMovementType: 0
    ringFingerMovementType: 0
    pinkyFingerMovementType: 0
    ignoreRootPoseData: 1
    ignoreWristPoseData: 1
    position: {x: 0.004193983, y: 0.0017184913, z: -0.048947252}
    rotation: {x: -0.4198014, y: 0.065259635, z: -0.13905689, w: -0.89452285}
    bonePositions:
    - {x: -0, y: 0, z: 0}
    - {x: -0.034037687, y: 0.03650266, z: 0.16472164}
    - {x: -0.012083249, y: 0.028070243, z: 0.025049724}
    - {x: 0.040406667, y: -0.000000009313226, z: 0.00000046938658}
    - {x: 0.032517206, y: 0.00000004468893, z: 0.00000030826777}
    - {x: 0.030463902, y: 0.00000016269207, z: 0.0000000792839}
    - {x: 0.0006324663, y: 0.026866155, z: 0.015001977}
    - {x: 0.07420445, y: 0.0050021894, z: -0.00023379177}
    - {x: 0.043929998, y: 0.000000051142706, z: 0.0000001839071}
    - {x: 0.028695416, y: -0.00000014388934, z: -0.00000019883737}
    - {x: 0.022821384, y: -0.00000014365155, z: 0.00000007651614}
    - {x: 0.0021773083, y: 0.007119564, z: 0.016318645}
    - {x: 0.07095286, y: -0.00077883527, z: -0.0009971857}
    - {x: 0.04310839, y: -0.00000008940697, z: -0.000000009778887}
    - {x: 0.033266112, y: 0.00000006845221, z: -0.00000010576332}
    - {x: 0.025892371, y: 0.00000009984198, z: -0.0000000020352908}
    - {x: 0.0005134343, y: -0.006545095, z: 0.016347717}
    - {x: 0.06587579, y: -0.0017858071, z: -0.00069344044}
    - {x: 0.040696803, y: -0.00000008929055, z: -0.00000015925616}
    - {x: 0.028747533, y: -0.00000040966552, z: -0.0000009794021}
    - {x: 0.022430236, y: 0.00000010846127, z: -0.000000017428562}
    - {x: -0.002478132, y: -0.018981338, z: 0.015213505}
    - {x: 0.06287853, y: -0.002844124, z: -0.00033148378}
    - {x: 0.030220747, y: -0.0000017168932, z: -0.0000012470846}
    - {x: 0.018187828, y: -0.0000010558288, z: -0.00000073749106}
    - {x: 0.01801794, y: -0.0000000200012, z: 0.0000000659746}
    - {x: -0.0060591106, y: 0.05628522, z: 0.060063843}
    - {x: -0.04041555, y: -0.043017667, z: 0.019344581}
    - {x: -0.03935372, y: -0.07567404, z: 0.047048334}
    - {x: -0.038340144, y: -0.09098663, z: 0.08257892}
    - {x: -0.031805996, y: -0.08721431, z: 0.12101539}
    boneRotations:
    - {x: -6.123234e-17, y: 1, z: 6.123234e-17, w: -0.00000004371139}
    - {x: -0.078608155, y: -0.92027926, z: 0.3792963, w: -0.055146642}
    - {x: -0.14030161, y: -0.88395697, z: 0.31541097, w: 0.31535935}
    - {x: 0.10901335, y: 0.010778337, z: -0.070965946, w: 0.99144536}
    - {x: 0.020316688, y: 0.10614804, z: -0.027188804, w: 0.9937709}
    - {x: -1.3877788e-17, y: -1.3877788e-17, z: -5.551115e-17, w: 1}
    - {x: -0.64180034, y: -0.4292295, z: -0.48325768, w: 0.41269416}
    - {x: 0.010974986, y: -0.0031567358, z: -0.07466994, w: 0.9971429}
    - {x: -0.07250446, y: -0.058566764, z: -0.28663823, w: 0.9534944}
    - {x: -0.12727703, y: -0.015427722, z: -0.29267612, w: 0.9475776}
    - {x: 6.938894e-18, y: 1.9428903e-16, z: -1.348151e-33, w: 1}
    - {x: -0.55018127, y: -0.5088706, z: -0.44867444, w: 0.4868701}
    - {x: -0.17888485, y: 0.069034226, z: -0.094377406, w: 0.9768968}
    - {x: 0.0042908783, y: -0.00437298, z: -0.34328863, w: 0.93921}
    - {x: -0.00891071, y: -0.04787438, z: -0.2984674, w: 0.95317674}
    - {x: 1.1639192e-17, y: -5.602331e-17, z: -0.040125635, w: 0.9991947}
    - {x: -0.5467543, y: -0.4559029, z: -0.53029263, w: 0.46043685}
    - {x: -0.094396114, y: 0.066239044, z: -0.16534817, w: 0.9794702}
    - {x: 0.07984364, y: -0.012320874, z: -0.20352603, w: 0.97573066}
    - {x: 0.062253848, y: -0.06396112, z: -0.34917802, w: 0.93279594}
    - {x: 6.938894e-18, y: -9.62965e-35, z: -1.3877788e-17, w: 1}
    - {x: -0.5425141, y: -0.37033936, z: -0.6211347, w: 0.42745644}
    - {x: -0.047439173, y: 0.105043866, z: -0.18798444, w: 0.97538567}
    - {x: 0.043753035, y: -0.0091000665, z: -0.20832674, w: 0.9770378}
    - {x: 0.047525145, y: 0.055223376, z: -0.055978537, w: 0.99577016}
    - {x: 0, y: 0, z: 1.9081958e-17, w: 1}
    - {x: 0.20274544, y: 0.59426665, z: 0.2494411, w: 0.73723847}
    - {x: 0.6235274, y: -0.66380864, z: -0.29373443, w: -0.29033053}
    - {x: 0.6780625, y: -0.6592852, z: -0.26568344, w: -0.18704711}
    - {x: 0.7367927, y: -0.6347571, z: -0.14393571, w: -0.18303718}
    - {x: 0.7584072, y: -0.6393418, z: -0.12667806, w: -0.0036594148}
  rightHand:
    inputSource: 2
    thumbFingerMovementType: 0
    indexFingerMovementType: 0
    middleFingerMovementType: 0
    ringFingerMovementType: 0
    pinkyFingerMovementType: 0
    ignoreRootPoseData: 1
    ignoreWristPoseData: 1
    position: {x: -0.01734274, y: 0.004395578, z: -0.04572492}
    rotation: {x: 0.4198014, y: 0.065259635, z: -0.13905689, w: 0.89452285}
    bonePositions:
    - {x: -0, y: 0, z: 0}
    - {x: -0.034037687, y: 0.03650266, z: 0.16472164}
    - {x: -0.012083249, y: 0.028070243, z: 0.025049724}
    - {x: 0.040406667, y: -0.000000009313226, z: 0.00000046938658}
    - {x: 0.032517206, y: 0.00000004468893, z: 0.00000030826777}
    - {x: 0.030463902, y: 0.00000016269207, z: 0.0000000792839}
    - {x: 0.0006324663, y: 0.026866155, z: 0.015001977}
    - {x: 0.07420445, y: 0.0050021894, z: -0.00023379177}
    - {x: 0.043929998, y: 0.000000051142706, z: 0.0000001839071}
    - {x: 0.028695416, y: -0.00000014388934, z: -0.00000019883737}
    - {x: 0.022821384, y: -0.00000014365155, z: 0.00000007651614}
    - {x: 0.0021773083, y: 0.007119564, z: 0.016318645}
    - {x: 0.07095286, y: -0.00077883527, z: -0.0009971857}
    - {x: 0.04310839, y: -0.00000008940697, z: -0.000000009778887}
    - {x: 0.033266112, y: 0.00000006845221, z: -0.00000010576332}
    - {x: 0.025892371, y: 0.00000009984198, z: -0.0000000020352908}
    - {x: 0.0005134343, y: -0.006545095, z: 0.016347717}
    - {x: 0.06587579, y: -0.0017858071, z: -0.00069344044}
    - {x: 0.040696803, y: -0.00000008929055, z: -0.00000015925616}
    - {x: 0.028747533, y: -0.00000040966552, z: -0.0000009794021}
    - {x: 0.022430236, y: 0.00000010846127, z: -0.000000017428562}
    - {x: -0.002478132, y: -0.018981338, z: 0.015213505}
    - {x: 0.06287853, y: -0.002844124, z: -0.00033148378}
    - {x: 0.030220747, y: -0.0000017168932, z: -0.0000012470846}
    - {x: 0.018187828, y: -0.0000010558288, z: -0.00000073749106}
    - {x: 0.01801794, y: -0.0000000200012, z: 0.0000000659746}
    - {x: -0.0060591106, y: 0.05628522, z: 0.060063843}
    - {x: -0.04041555, y: -0.043017667, z: 0.019344581}
    - {x: -0.03935372, y: -0.07567404, z: 0.047048334}
    - {x: -0.038340144, y: -0.09098663, z: 0.08257892}
    - {x: -0.031805996, y: -0.08721431, z: 0.12101539}
    boneRotations:
    - {x: -6.123234e-17, y: 1, z: 6.123234e-17, w: -0.00000004371139}
    - {x: -0.078608155, y: -0.92027926, z: 0.3792963, w: -0.055146642}
    - {x: -0.14030161, y: -0.88395697, z: 0.31541097, w: 0.31535935}
    - {x: 0.10901335, y: 0.010778337, z: -0.070965946, w: 0.99144536}
    - {x: 0.020316688, y: 0.10614804, z: -0.027188804, w: 0.9937709}
    - {x: -1.3877788e-17, y: -1.3877788e-17, z: -5.551115e-17, w: 1}
    - {x: -0.64180034, y: -0.4292295, z: -0.48325768, w: 0.41269416}
    - {x: 0.010974986, y: -0.0031567358, z: -0.07466994, w: 0.9971429}
    - {x: -0.07250446, y: -0.058566764, z: -0.28663823, w: 0.9534944}
    - {x: -0.12727703, y: -0.015427722, z: -0.29267612, w: 0.9475776}
    - {x: 6.938894e-18, y: 1.9428903e-16, z: -1.348151e-33, w: 1}
    - {x: -0.55018127, y: -0.5088706, z: -0.44867444, w: 0.4868701}
    - {x: -0.17888485, y: 0.069034226, z: -0.094377406, w: 0.9768968}
    - {x: 0.0042908783, y: -0.00437298, z: -0.34328863, w: 0.93921}
    - {x: -0.00891071, y: -0.04787438, z: -0.2984674, w: 0.95317674}
    - {x: 1.1639192e-17, y: -5.602331e-17, z: -0.040125635, w: 0.9991947}
    - {x: -0.5467543, y: -0.4559029, z: -0.53029263, w: 0.46043685}
    - {x: -0.094396114, y: 0.066239044, z: -0.16534817, w: 0.9794702}
    - {x: 0.07984364, y: -0.012320874, z: -0.20352603, w: 0.97573066}
    - {x: 0.062253848, y: -0.06396112, z: -0.34917802, w: 0.93279594}
    - {x: 6.938894e-18, y: -9.62965e-35, z: -1.3877788e-17, w: 1}
    - {x: -0.5425141, y: -0.37033936, z: -0.6211347, w: 0.42745644}
    - {x: -0.047439173, y: 0.105043866, z: -0.18798444, w: 0.97538567}
    - {x: 0.043753035, y: -0.0091000665, z: -0.20832674, w: 0.9770378}
    - {x: 0.047525145, y: 0.055223376, z: -0.055978537, w: 0.99577016}
    - {x: 0, y: 0, z: 1.9081958e-17, w: 1}
    - {x: 0.20274544, y: 0.59426665, z: 0.2494411, w: 0.73723847}
    - {x: 0.6235274, y: -0.66380864, z: -0.29373443, w: -0.29033053}
    - {x: 0.6780625, y: -0.6592852, z: -0.26568344, w: -0.18704711}
    - {x: 0.7367927, y: -0.6347571, z: -0.14393571, w: -0.18303718}
    - {x: 0.7584072, y: -0.6393418, z: -0.12667806, w: -0.0036594148}
  applyToSkeletonRoot: 1
