%YAML 1.1
%TAG !u! tag:unity3d.com,2011:
--- !u!1 &4090123366734719487
GameObject:
  m_ObjectHideFlags: 0
  m_CorrespondingSourceObject: {fileID: 0}
  m_PrefabInstance: {fileID: 0}
  m_PrefabAsset: {fileID: 0}
  serializedVersion: 6
  m_Component:
  - component: {fileID: 1143581566191307180}
  m_Layer: 0
  m_Name: Global_PF_Siguiente1
  m_TagString: Untagged
  m_Icon: {fileID: 0}
  m_NavMeshLayer: 0
  m_StaticEditorFlags: 0
  m_IsActive: 1
--- !u!4 &1143581566191307180
Transform:
  m_ObjectHideFlags: 0
  m_CorrespondingSourceObject: {fileID: 0}
  m_PrefabInstance: {fileID: 0}
  m_PrefabAsset: {fileID: 0}
  m_GameObject: {fileID: 4090123366734719487}
  m_LocalRotation: {x: 0, y: 0, z: 0, w: 1}
  m_LocalPosition: {x: 0, y: 0, z: 0}
  m_LocalScale: {x: 1, y: 1, z: 1}
  m_Children:
  - {fileID: 2097225068750152497}
  - {fileID: 3511303821617518063}
  m_Father: {fileID: 0}
  m_RootOrder: 0
  m_LocalEulerAnglesHint: {x: 0, y: 0, z: 0}
--- !u!1001 &2068440079164736197
PrefabInstance:
  m_ObjectHideFlags: 0
  serializedVersion: 2
  m_Modification:
    m_TransformParent: {fileID: 1143581566191307180}
    m_Modifications:
    - target: {fileID: 121109403409169876, guid: d93c8e21a6f5d01488027606067335d0,
        type: 3}
      propertyPath: m_Name
      value: Siguiente
      objectReference: {fileID: 0}
    - target: {fileID: 121109403409457652, guid: d93c8e21a6f5d01488027606067335d0,
        type: 3}
      propertyPath: m_RootOrder
      value: 0
      objectReference: {fileID: 0}
    - target: {fileID: 121109403409457652, guid: d93c8e21a6f5d01488027606067335d0,
        type: 3}
      propertyPath: m_LocalPosition.x
      value: 1
      objectReference: {fileID: 0}
    - target: {fileID: 121109403409457652, guid: d93c8e21a6f5d01488027606067335d0,
        type: 3}
      propertyPath: m_LocalPosition.y
      value: 0
      objectReference: {fileID: 0}
    - target: {fileID: 121109403409457652, guid: d93c8e21a6f5d01488027606067335d0,
        type: 3}
      propertyPath: m_LocalPosition.z
      value: 0
      objectReference: {fileID: 0}
    - target: {fileID: 121109403409457652, guid: d93c8e21a6f5d01488027606067335d0,
        type: 3}
      propertyPath: m_LocalRotation.w
      value: 1
      objectReference: {fileID: 0}
    - target: {fileID: 121109403409457652, guid: d93c8e21a6f5d01488027606067335d0,
        type: 3}
      propertyPath: m_LocalRotation.x
      value: 0
      objectReference: {fileID: 0}
    - target: {fileID: 121109403409457652, guid: d93c8e21a6f5d01488027606067335d0,
        type: 3}
      propertyPath: m_LocalRotation.y
      value: 0
      objectReference: {fileID: 0}
    - target: {fileID: 121109403409457652, guid: d93c8e21a6f5d01488027606067335d0,
        type: 3}
      propertyPath: m_LocalRotation.z
      value: 0
      objectReference: {fileID: 0}
    - target: {fileID: 121109403409457652, guid: d93c8e21a6f5d01488027606067335d0,
        type: 3}
      propertyPath: m_LocalEulerAnglesHint.x
      value: 0
      objectReference: {fileID: 0}
    - target: {fileID: 121109403409457652, guid: d93c8e21a6f5d01488027606067335d0,
        type: 3}
      propertyPath: m_LocalEulerAnglesHint.y
      value: 0
      objectReference: {fileID: 0}
    - target: {fileID: 121109403409457652, guid: d93c8e21a6f5d01488027606067335d0,
        type: 3}
      propertyPath: m_LocalEulerAnglesHint.z
      value: 0
      objectReference: {fileID: 0}
    - target: {fileID: 7954008108698303003, guid: d93c8e21a6f5d01488027606067335d0,
        type: 3}
      propertyPath: tipo
      value: 4
      objectReference: {fileID: 0}
    - target: {fileID: 7954008108698303003, guid: d93c8e21a6f5d01488027606067335d0,
        type: 3}
      propertyPath: nombre
      value: Siguiente
      objectReference: {fileID: 0}
    m_RemovedComponents: []
  m_SourcePrefab: {fileID: 100100000, guid: d93c8e21a6f5d01488027606067335d0, type: 3}
--- !u!4 &2097225068750152497 stripped
Transform:
  m_CorrespondingSourceObject: {fileID: 121109403409457652, guid: d93c8e21a6f5d01488027606067335d0,
    type: 3}
  m_PrefabInstance: {fileID: 2068440079164736197}
  m_PrefabAsset: {fileID: 0}
--- !u!1001 &3536711523795072027
PrefabInstance:
  m_ObjectHideFlags: 0
  serializedVersion: 2
  m_Modification:
    m_TransformParent: {fileID: 1143581566191307180}
    m_Modifications:
    - target: {fileID: 121109403409169876, guid: d93c8e21a6f5d01488027606067335d0,
        type: 3}
      propertyPath: m_Name
      value: Exit
      objectReference: {fileID: 0}
    - target: {fileID: 121109403409457652, guid: d93c8e21a6f5d01488027606067335d0,
        type: 3}
      propertyPath: m_RootOrder
      value: 1
      objectReference: {fileID: 0}
    - target: {fileID: 121109403409457652, guid: d93c8e21a6f5d01488027606067335d0,
        type: 3}
      propertyPath: m_LocalPosition.x
      value: -1
      objectReference: {fileID: 0}
    - target: {fileID: 121109403409457652, guid: d93c8e21a6f5d01488027606067335d0,
        type: 3}
      propertyPath: m_LocalPosition.y
      value: 0
      objectReference: {fileID: 0}
    - target: {fileID: 121109403409457652, guid: d93c8e21a6f5d01488027606067335d0,
        type: 3}
      propertyPath: m_LocalPosition.z
      value: 0
      objectReference: {fileID: 0}
    - target: {fileID: 121109403409457652, guid: d93c8e21a6f5d01488027606067335d0,
        type: 3}
      propertyPath: m_LocalRotation.w
      value: 1
      objectReference: {fileID: 0}
    - target: {fileID: 121109403409457652, guid: d93c8e21a6f5d01488027606067335d0,
        type: 3}
      propertyPath: m_LocalRotation.x
      value: 0
      objectReference: {fileID: 0}
    - target: {fileID: 121109403409457652, guid: d93c8e21a6f5d01488027606067335d0,
        type: 3}
      propertyPath: m_LocalRotation.y
      value: 0
      objectReference: {fileID: 0}
    - target: {fileID: 121109403409457652, guid: d93c8e21a6f5d01488027606067335d0,
        type: 3}
      propertyPath: m_LocalRotation.z
      value: 0
      objectReference: {fileID: 0}
    - target: {fileID: 121109403409457652, guid: d93c8e21a6f5d01488027606067335d0,
        type: 3}
      propertyPath: m_LocalEulerAnglesHint.x
      value: 0
      objectReference: {fileID: 0}
    - target: {fileID: 121109403409457652, guid: d93c8e21a6f5d01488027606067335d0,
        type: 3}
      propertyPath: m_LocalEulerAnglesHint.y
      value: 0
      objectReference: {fileID: 0}
    - target: {fileID: 121109403409457652, guid: d93c8e21a6f5d01488027606067335d0,
        type: 3}
      propertyPath: m_LocalEulerAnglesHint.z
      value: 0
      objectReference: {fileID: 0}
    - target: {fileID: 7954008108698303003, guid: d93c8e21a6f5d01488027606067335d0,
        type: 3}
      propertyPath: tipo
      value: -1
      objectReference: {fileID: 0}
    - target: {fileID: 7954008108698303003, guid: d93c8e21a6f5d01488027606067335d0,
        type: 3}
      propertyPath: valor
      value: 3
      objectReference: {fileID: 0}
    - target: {fileID: 7954008108698303003, guid: d93c8e21a6f5d01488027606067335d0,
        type: 3}
      propertyPath: nombre
      value: Exit
      objectReference: {fileID: 0}
    m_RemovedComponents: []
  m_SourcePrefab: {fileID: 100100000, guid: d93c8e21a6f5d01488027606067335d0, type: 3}
--- !u!4 &3511303821617518063 stripped
Transform:
  m_CorrespondingSourceObject: {fileID: 121109403409457652, guid: d93c8e21a6f5d01488027606067335d0,
    type: 3}
  m_PrefabInstance: {fileID: 3536711523795072027}
  m_PrefabAsset: {fileID: 0}
