%YAML 1.1
%TAG !u! tag:unity3d.com,2011:
--- !u!29 &1
OcclusionCullingSettings:
  m_ObjectHideFlags: 0
  serializedVersion: 2
  m_OcclusionBakeSettings:
    smallestOccluder: 5
    smallestHole: 0.25
    backfaceThreshold: 100
  m_SceneGUID: 00000000000000000000000000000000
  m_OcclusionCullingData: {fileID: 0}
--- !u!104 &2
RenderSettings:
  m_ObjectHideFlags: 0
  serializedVersion: 9
  m_Fog: 0
  m_FogColor: {r: 0.5, g: 0.5, b: 0.5, a: 1}
  m_FogMode: 3
  m_FogDensity: 0.01
  m_LinearFogStart: 0
  m_LinearFogEnd: 300
  m_AmbientSkyColor: {r: 0.212, g: 0.227, b: 0.259, a: 1}
  m_AmbientEquatorColor: {r: 0.114, g: 0.125, b: 0.133, a: 1}
  m_AmbientGroundColor: {r: 0.047, g: 0.043, b: 0.035, a: 1}
  m_AmbientIntensity: 1
  m_AmbientMode: 0
  m_SubtractiveShadowColor: {r: 0.42, g: 0.478, b: 0.627, a: 1}
  m_SkyboxMaterial: {fileID: 10304, guid: 0000000000000000f000000000000000, type: 0}
  m_HaloStrength: 0.5
  m_FlareStrength: 1
  m_FlareFadeSpeed: 3
  m_HaloTexture: {fileID: 0}
  m_SpotCookie: {fileID: 10001, guid: 0000000000000000e000000000000000, type: 0}
  m_DefaultReflectionMode: 0
  m_DefaultReflectionResolution: 128
  m_ReflectionBounces: 1
  m_ReflectionIntensity: 1
  m_CustomReflection: {fileID: 0}
  m_Sun: {fileID: 705507994}
  m_IndirectSpecularColor: {r: 0, g: 0, b: 0, a: 1}
  m_UseRadianceAmbientProbe: 0
--- !u!157 &3
LightmapSettings:
  m_ObjectHideFlags: 0
  serializedVersion: 11
  m_GIWorkflowMode: 1
  m_GISettings:
    serializedVersion: 2
    m_BounceScale: 1
    m_IndirectOutputScale: 1
    m_AlbedoBoost: 1
    m_EnvironmentLightingMode: 0
    m_EnableBakedLightmaps: 1
    m_EnableRealtimeLightmaps: 0
  m_LightmapEditorSettings:
    serializedVersion: 12
    m_Resolution: 2
    m_BakeResolution: 40
    m_AtlasSize: 1024
    m_AO: 0
    m_AOMaxDistance: 1
    m_CompAOExponent: 1
    m_CompAOExponentDirect: 0
    m_ExtractAmbientOcclusion: 0
    m_Padding: 2
    m_LightmapParameters: {fileID: 0}
    m_LightmapsBakeMode: 1
    m_TextureCompression: 1
    m_FinalGather: 0
    m_FinalGatherFiltering: 1
    m_FinalGatherRayCount: 256
    m_ReflectionCompression: 2
    m_MixedBakeMode: 2
    m_BakeBackend: 1
    m_PVRSampling: 1
    m_PVRDirectSampleCount: 32
    m_PVRSampleCount: 500
    m_PVRBounces: 2
    m_PVREnvironmentSampleCount: 500
    m_PVREnvironmentReferencePointCount: 2048
    m_PVRFilteringMode: 2
    m_PVRDenoiserTypeDirect: 0
    m_PVRDenoiserTypeIndirect: 0
    m_PVRDenoiserTypeAO: 0
    m_PVRFilterTypeDirect: 0
    m_PVRFilterTypeIndirect: 0
    m_PVRFilterTypeAO: 0
    m_PVREnvironmentMIS: 0
    m_PVRCulling: 1
    m_PVRFilteringGaussRadiusDirect: 1
    m_PVRFilteringGaussRadiusIndirect: 5
    m_PVRFilteringGaussRadiusAO: 2
    m_PVRFilteringAtrousPositionSigmaDirect: 0.5
    m_PVRFilteringAtrousPositionSigmaIndirect: 2
    m_PVRFilteringAtrousPositionSigmaAO: 1
    m_ExportTrainingData: 0
    m_TrainingDataDestination: TrainingData
    m_LightProbeSampleCountMultiplier: 4
  m_LightingDataAsset: {fileID: 0}
  m_UseShadowmask: 1
--- !u!196 &4
NavMeshSettings:
  serializedVersion: 2
  m_ObjectHideFlags: 0
  m_BuildSettings:
    serializedVersion: 2
    agentTypeID: 0
    agentRadius: 0.5
    agentHeight: 2
    agentSlope: 45
    agentClimb: 0.4
    ledgeDropHeight: 0
    maxJumpAcrossDistance: 0
    minRegionArea: 2
    manualCellSize: 0
    cellSize: 0.16666667
    manualTileSize: 0
    tileSize: 256
    accuratePlacement: 0
    debug:
      m_Flags: 0
  m_NavMeshData: {fileID: 0}
--- !u!4 &36951046 stripped
Transform:
  m_CorrespondingSourceObject: {fileID: 4472898111671523063, guid: e900b32ee6c991e4591969b5e05e1538,
    type: 3}
  m_PrefabInstance: {fileID: 670693559}
  m_PrefabAsset: {fileID: 0}
--- !u!1001 &121214801
PrefabInstance:
  m_ObjectHideFlags: 0
  serializedVersion: 2
  m_Modification:
    m_TransformParent: {fileID: 1049686258}
    m_Modifications:
    - target: {fileID: 1724972533694550, guid: 63e523ab5d9ce7348b431ae1d689a54d, type: 3}
      propertyPath: m_Name
      value: Fruta5
      objectReference: {fileID: 0}
    - target: {fileID: 1724972533694550, guid: 63e523ab5d9ce7348b431ae1d689a54d, type: 3}
      propertyPath: m_TagString
      value: Fruta
      objectReference: {fileID: 0}
    - target: {fileID: 4863069348827460, guid: 63e523ab5d9ce7348b431ae1d689a54d, type: 3}
      propertyPath: m_RootOrder
      value: 5
      objectReference: {fileID: 0}
    - target: {fileID: 4863069348827460, guid: 63e523ab5d9ce7348b431ae1d689a54d, type: 3}
      propertyPath: m_LocalScale.x
      value: 100.00002
      objectReference: {fileID: 0}
    - target: {fileID: 4863069348827460, guid: 63e523ab5d9ce7348b431ae1d689a54d, type: 3}
      propertyPath: m_LocalPosition.x
      value: 3.768338
      objectReference: {fileID: 0}
    - target: {fileID: 4863069348827460, guid: 63e523ab5d9ce7348b431ae1d689a54d, type: 3}
      propertyPath: m_LocalPosition.y
      value: 5.540739
      objectReference: {fileID: 0}
    - target: {fileID: 4863069348827460, guid: 63e523ab5d9ce7348b431ae1d689a54d, type: 3}
      propertyPath: m_LocalPosition.z
      value: -0.13198853
      objectReference: {fileID: 0}
    - target: {fileID: 4863069348827460, guid: 63e523ab5d9ce7348b431ae1d689a54d, type: 3}
      propertyPath: m_LocalRotation.w
      value: 0.65536845
      objectReference: {fileID: 0}
    - target: {fileID: 4863069348827460, guid: 63e523ab5d9ce7348b431ae1d689a54d, type: 3}
      propertyPath: m_LocalRotation.x
      value: -0.75310755
      objectReference: {fileID: 0}
    - target: {fileID: 4863069348827460, guid: 63e523ab5d9ce7348b431ae1d689a54d, type: 3}
      propertyPath: m_LocalRotation.y
      value: 0.047470577
      objectReference: {fileID: 0}
    - target: {fileID: 4863069348827460, guid: 63e523ab5d9ce7348b431ae1d689a54d, type: 3}
      propertyPath: m_LocalRotation.z
      value: 0.032677125
      objectReference: {fileID: 0}
    - target: {fileID: 4863069348827460, guid: 63e523ab5d9ce7348b431ae1d689a54d, type: 3}
      propertyPath: m_LocalEulerAnglesHint.x
      value: -98.016
      objectReference: {fileID: 0}
    - target: {fileID: 4863069348827460, guid: 63e523ab5d9ce7348b431ae1d689a54d, type: 3}
      propertyPath: m_LocalEulerAnglesHint.y
      value: -5.3499756
      objectReference: {fileID: 0}
    - target: {fileID: 4863069348827460, guid: 63e523ab5d9ce7348b431ae1d689a54d, type: 3}
      propertyPath: m_LocalEulerAnglesHint.z
      value: 11.863998
      objectReference: {fileID: 0}
    m_RemovedComponents: []
  m_SourcePrefab: {fileID: 100100000, guid: 63e523ab5d9ce7348b431ae1d689a54d, type: 3}
--- !u!1001 &183214062
PrefabInstance:
  m_ObjectHideFlags: 0
  serializedVersion: 2
  m_Modification:
    m_TransformParent: {fileID: 1049686258}
    m_Modifications:
    - target: {fileID: 1829371231341652, guid: 426b44a7575f71e479fab4f4e8431989, type: 3}
      propertyPath: m_Name
      value: Fruta4
      objectReference: {fileID: 0}
    - target: {fileID: 1829371231341652, guid: 426b44a7575f71e479fab4f4e8431989, type: 3}
      propertyPath: m_TagString
      value: Fruta
      objectReference: {fileID: 0}
    - target: {fileID: 4411128782263238, guid: 426b44a7575f71e479fab4f4e8431989, type: 3}
      propertyPath: m_RootOrder
      value: 4
      objectReference: {fileID: 0}
    - target: {fileID: 4411128782263238, guid: 426b44a7575f71e479fab4f4e8431989, type: 3}
      propertyPath: m_LocalScale.x
      value: 100.00002
      objectReference: {fileID: 0}
    - target: {fileID: 4411128782263238, guid: 426b44a7575f71e479fab4f4e8431989, type: 3}
      propertyPath: m_LocalPosition.x
      value: 0.11
      objectReference: {fileID: 0}
    - target: {fileID: 4411128782263238, guid: 426b44a7575f71e479fab4f4e8431989, type: 3}
      propertyPath: m_LocalPosition.y
      value: 4.43
      objectReference: {fileID: 0}
    - target: {fileID: 4411128782263238, guid: 426b44a7575f71e479fab4f4e8431989, type: 3}
      propertyPath: m_LocalPosition.z
      value: 0.15
      objectReference: {fileID: 0}
    - target: {fileID: 4411128782263238, guid: 426b44a7575f71e479fab4f4e8431989, type: 3}
      propertyPath: m_LocalRotation.w
      value: 0.65536845
      objectReference: {fileID: 0}
    - target: {fileID: 4411128782263238, guid: 426b44a7575f71e479fab4f4e8431989, type: 3}
      propertyPath: m_LocalRotation.x
      value: -0.75310755
      objectReference: {fileID: 0}
    - target: {fileID: 4411128782263238, guid: 426b44a7575f71e479fab4f4e8431989, type: 3}
      propertyPath: m_LocalRotation.y
      value: 0.047470577
      objectReference: {fileID: 0}
    - target: {fileID: 4411128782263238, guid: 426b44a7575f71e479fab4f4e8431989, type: 3}
      propertyPath: m_LocalRotation.z
      value: 0.032677125
      objectReference: {fileID: 0}
    - target: {fileID: 4411128782263238, guid: 426b44a7575f71e479fab4f4e8431989, type: 3}
      propertyPath: m_LocalEulerAnglesHint.x
      value: -98.016
      objectReference: {fileID: 0}
    - target: {fileID: 4411128782263238, guid: 426b44a7575f71e479fab4f4e8431989, type: 3}
      propertyPath: m_LocalEulerAnglesHint.y
      value: -5.3499756
      objectReference: {fileID: 0}
    - target: {fileID: 4411128782263238, guid: 426b44a7575f71e479fab4f4e8431989, type: 3}
      propertyPath: m_LocalEulerAnglesHint.z
      value: 11.863998
      objectReference: {fileID: 0}
    m_RemovedComponents: []
  m_SourcePrefab: {fileID: 100100000, guid: 426b44a7575f71e479fab4f4e8431989, type: 3}
--- !u!1 &442515866 stripped
GameObject:
  m_CorrespondingSourceObject: {fileID: 1802840387486672, guid: 8f38e57a49b1c844081ad6bb3c553f13,
    type: 3}
  m_PrefabInstance: {fileID: 712109353}
  m_PrefabAsset: {fileID: 0}
--- !u!4 &442515867 stripped
Transform:
  m_CorrespondingSourceObject: {fileID: 4785770825739254, guid: 8f38e57a49b1c844081ad6bb3c553f13,
    type: 3}
  m_PrefabInstance: {fileID: 712109353}
  m_PrefabAsset: {fileID: 0}
--- !u!64 &442515868
MeshCollider:
  m_ObjectHideFlags: 0
  m_CorrespondingSourceObject: {fileID: 0}
  m_PrefabInstance: {fileID: 0}
  m_PrefabAsset: {fileID: 0}
  m_GameObject: {fileID: 442515866}
  m_Material: {fileID: 0}
  m_IsTrigger: 0
  m_Enabled: 1
  serializedVersion: 4
  m_Convex: 1
  m_CookingOptions: 30
  m_Mesh: {fileID: 4300012, guid: 3f4d2118f6a772542a1635ef5bfa6982, type: 3}
--- !u!54 &442515871
Rigidbody:
  m_ObjectHideFlags: 0
  m_CorrespondingSourceObject: {fileID: 0}
  m_PrefabInstance: {fileID: 0}
  m_PrefabAsset: {fileID: 0}
  m_GameObject: {fileID: 442515866}
  serializedVersion: 2
  m_Mass: 1
  m_Drag: 0
  m_AngularDrag: 0.05
  m_UseGravity: 1
  m_IsKinematic: 0
  m_Interpolate: 0
  m_Constraints: 14
  m_CollisionDetection: 0
--- !u!1 &636732087
GameObject:
  m_ObjectHideFlags: 0
  m_CorrespondingSourceObject: {fileID: 0}
  m_PrefabInstance: {fileID: 0}
  m_PrefabAsset: {fileID: 0}
  serializedVersion: 6
  m_Component:
  - component: {fileID: 636732088}
  - component: {fileID: 636732091}
  - component: {fileID: 636732090}
  - component: {fileID: 636732089}
  m_Layer: 5
  m_Name: Canvas
  m_TagString: Untagged
  m_Icon: {fileID: 0}
  m_NavMeshLayer: 0
  m_StaticEditorFlags: 0
  m_IsActive: 1
--- !u!224 &636732088
RectTransform:
  m_ObjectHideFlags: 0
  m_CorrespondingSourceObject: {fileID: 0}
  m_PrefabInstance: {fileID: 0}
  m_PrefabAsset: {fileID: 0}
  m_GameObject: {fileID: 636732087}
  m_LocalRotation: {x: 0, y: -0.10710578, z: 0, w: 0.9942477}
  m_LocalPosition: {x: 0, y: 0, z: 33.2}
  m_LocalScale: {x: 0.075175814, y: 0.075175814, z: 0.075175814}
  m_Children:
  - {fileID: 1372587418}
  m_Father: {fileID: 937145184}
  m_RootOrder: 0
  m_LocalEulerAnglesHint: {x: 0, y: -12.297, z: 0}
  m_AnchorMin: {x: 0, y: 0}
  m_AnchorMax: {x: 0, y: 0}
  m_AnchoredPosition: {x: 8.7, y: -15.3}
  m_SizeDelta: {x: 1024.0001, y: 768}
  m_Pivot: {x: 0.5, y: 0.5}
--- !u!114 &636732089
MonoBehaviour:
  m_ObjectHideFlags: 0
  m_CorrespondingSourceObject: {fileID: 0}
  m_PrefabInstance: {fileID: 0}
  m_PrefabAsset: {fileID: 0}
  m_GameObject: {fileID: 636732087}
  m_Enabled: 1
  m_EditorHideFlags: 0
  m_Script: {fileID: 11500000, guid: dc42784cf147c0c48a680349fa168899, type: 3}
  m_Name: 
  m_EditorClassIdentifier: 
  m_IgnoreReversedGraphics: 1
  m_BlockingObjects: 0
  m_BlockingMask:
    serializedVersion: 2
    m_Bits: 4294967295
--- !u!114 &636732090
MonoBehaviour:
  m_ObjectHideFlags: 0
  m_CorrespondingSourceObject: {fileID: 0}
  m_PrefabInstance: {fileID: 0}
  m_PrefabAsset: {fileID: 0}
  m_GameObject: {fileID: 636732087}
  m_Enabled: 1
  m_EditorHideFlags: 0
  m_Script: {fileID: 11500000, guid: 0cd44c1031e13a943bb63640046fad76, type: 3}
  m_Name: 
  m_EditorClassIdentifier: 
  m_UiScaleMode: 0
  m_ReferencePixelsPerUnit: 100
  m_ScaleFactor: 1
  m_ReferenceResolution: {x: 800, y: 600}
  m_ScreenMatchMode: 0
  m_MatchWidthOrHeight: 0
  m_PhysicalUnit: 3
  m_FallbackScreenDPI: 96
  m_DefaultSpriteDPI: 96
  m_DynamicPixelsPerUnit: 1
--- !u!223 &636732091
Canvas:
  m_ObjectHideFlags: 0
  m_CorrespondingSourceObject: {fileID: 0}
  m_PrefabInstance: {fileID: 0}
  m_PrefabAsset: {fileID: 0}
  m_GameObject: {fileID: 636732087}
  m_Enabled: 1
  serializedVersion: 3
  m_RenderMode: 2
  m_Camera: {fileID: 0}
  m_PlaneDistance: 50
  m_PixelPerfect: 1
  m_ReceivesEvents: 1
  m_OverrideSorting: 0
  m_OverridePixelPerfect: 0
  m_SortingBucketNormalizedSize: 0
  m_AdditionalShaderChannelsFlag: 25
  m_SortingLayerID: 0
  m_SortingOrder: 0
  m_TargetDisplay: 0
--- !u!1001 &670693559
PrefabInstance:
  m_ObjectHideFlags: 0
  serializedVersion: 2
  m_Modification:
    m_TransformParent: {fileID: 0}
    m_Modifications:
    - target: {fileID: 4472898111671504615, guid: e900b32ee6c991e4591969b5e05e1538,
        type: 3}
      propertyPath: m_RootOrder
      value: 6
      objectReference: {fileID: 0}
    - target: {fileID: 4472898111671504615, guid: e900b32ee6c991e4591969b5e05e1538,
        type: 3}
      propertyPath: m_LocalPosition.x
      value: -7.288
      objectReference: {fileID: 0}
    - target: {fileID: 4472898111671504615, guid: e900b32ee6c991e4591969b5e05e1538,
        type: 3}
      propertyPath: m_LocalPosition.y
      value: -0.245
      objectReference: {fileID: 0}
    - target: {fileID: 4472898111671504615, guid: e900b32ee6c991e4591969b5e05e1538,
        type: 3}
      propertyPath: m_LocalPosition.z
      value: 15.005
      objectReference: {fileID: 0}
    - target: {fileID: 4472898111671504615, guid: e900b32ee6c991e4591969b5e05e1538,
        type: 3}
      propertyPath: m_LocalRotation.w
      value: 1
      objectReference: {fileID: 0}
    - target: {fileID: 4472898111671504615, guid: e900b32ee6c991e4591969b5e05e1538,
        type: 3}
      propertyPath: m_LocalRotation.x
      value: 0
      objectReference: {fileID: 0}
    - target: {fileID: 4472898111671504615, guid: e900b32ee6c991e4591969b5e05e1538,
        type: 3}
      propertyPath: m_LocalRotation.y
      value: 0
      objectReference: {fileID: 0}
    - target: {fileID: 4472898111671504615, guid: e900b32ee6c991e4591969b5e05e1538,
        type: 3}
      propertyPath: m_LocalRotation.z
      value: 0
      objectReference: {fileID: 0}
    - target: {fileID: 4472898111671504615, guid: e900b32ee6c991e4591969b5e05e1538,
        type: 3}
      propertyPath: m_LocalEulerAnglesHint.x
      value: 0
      objectReference: {fileID: 0}
    - target: {fileID: 4472898111671504615, guid: e900b32ee6c991e4591969b5e05e1538,
        type: 3}
      propertyPath: m_LocalEulerAnglesHint.y
      value: 0
      objectReference: {fileID: 0}
    - target: {fileID: 4472898111671504615, guid: e900b32ee6c991e4591969b5e05e1538,
        type: 3}
      propertyPath: m_LocalEulerAnglesHint.z
      value: 0
      objectReference: {fileID: 0}
    - target: {fileID: 4472898111671729823, guid: e900b32ee6c991e4591969b5e05e1538,
        type: 3}
      propertyPath: m_Name
      value: Global_s_Player
      objectReference: {fileID: 0}
    m_RemovedComponents: []
  m_SourcePrefab: {fileID: 100100000, guid: e900b32ee6c991e4591969b5e05e1538, type: 3}
--- !u!1 &701042840 stripped
GameObject:
  m_CorrespondingSourceObject: {fileID: 1724972533694550, guid: 63e523ab5d9ce7348b431ae1d689a54d,
    type: 3}
  m_PrefabInstance: {fileID: 121214801}
  m_PrefabAsset: {fileID: 0}
--- !u!4 &701042841 stripped
Transform:
  m_CorrespondingSourceObject: {fileID: 4863069348827460, guid: 63e523ab5d9ce7348b431ae1d689a54d,
    type: 3}
  m_PrefabInstance: {fileID: 121214801}
  m_PrefabAsset: {fileID: 0}
--- !u!64 &701042842
MeshCollider:
  m_ObjectHideFlags: 0
  m_CorrespondingSourceObject: {fileID: 0}
  m_PrefabInstance: {fileID: 0}
  m_PrefabAsset: {fileID: 0}
  m_GameObject: {fileID: 701042840}
  m_Material: {fileID: 0}
  m_IsTrigger: 0
  m_Enabled: 1
  serializedVersion: 4
  m_Convex: 1
  m_CookingOptions: 30
  m_Mesh: {fileID: 4300004, guid: 3f4d2118f6a772542a1635ef5bfa6982, type: 3}
--- !u!54 &701042845
Rigidbody:
  m_ObjectHideFlags: 0
  m_CorrespondingSourceObject: {fileID: 0}
  m_PrefabInstance: {fileID: 0}
  m_PrefabAsset: {fileID: 0}
  m_GameObject: {fileID: 701042840}
  serializedVersion: 2
  m_Mass: 1
  m_Drag: 0
  m_AngularDrag: 0.05
  m_UseGravity: 1
  m_IsKinematic: 0
  m_Interpolate: 0
  m_Constraints: 14
  m_CollisionDetection: 0
--- !u!1 &705507993
GameObject:
  m_ObjectHideFlags: 0
  m_CorrespondingSourceObject: {fileID: 0}
  m_PrefabInstance: {fileID: 0}
  m_PrefabAsset: {fileID: 0}
  serializedVersion: 6
  m_Component:
  - component: {fileID: 705507995}
  - component: {fileID: 705507994}
  m_Layer: 0
  m_Name: Directional Light
  m_TagString: Untagged
  m_Icon: {fileID: 0}
  m_NavMeshLayer: 0
  m_StaticEditorFlags: 0
  m_IsActive: 1
--- !u!108 &705507994
Light:
  m_ObjectHideFlags: 0
  m_CorrespondingSourceObject: {fileID: 0}
  m_PrefabInstance: {fileID: 0}
  m_PrefabAsset: {fileID: 0}
  m_GameObject: {fileID: 705507993}
  m_Enabled: 1
  serializedVersion: 10
  m_Type: 1
  m_Shape: 0
  m_Color: {r: 1, g: 0.95686275, b: 0.8392157, a: 1}
  m_Intensity: 1
  m_Range: 10
  m_SpotAngle: 30
  m_InnerSpotAngle: 21.80208
  m_CookieSize: 10
  m_Shadows:
    m_Type: 2
    m_Resolution: -1
    m_CustomResolution: -1
    m_Strength: 1
    m_Bias: 0.05
    m_NormalBias: 0.4
    m_NearPlane: 0.2
    m_CullingMatrixOverride:
      e00: 1
      e01: 0
      e02: 0
      e03: 0
      e10: 0
      e11: 1
      e12: 0
      e13: 0
      e20: 0
      e21: 0
      e22: 1
      e23: 0
      e30: 0
      e31: 0
      e32: 0
      e33: 1
    m_UseCullingMatrixOverride: 0
  m_Cookie: {fileID: 0}
  m_DrawHalo: 0
  m_Flare: {fileID: 0}
  m_RenderMode: 0
  m_CullingMask:
    serializedVersion: 2
    m_Bits: 4294967295
  m_RenderingLayerMask: 1
  m_Lightmapping: 1
  m_LightShadowCasterMode: 0
  m_AreaSize: {x: 1, y: 1}
  m_BounceIntensity: 1
  m_ColorTemperature: 6570
  m_UseColorTemperature: 0
  m_BoundingSphereOverride: {x: 0, y: 0, z: 0, w: 0}
  m_UseBoundingSphereOverride: 0
  m_ShadowRadius: 0
  m_ShadowAngle: 0
--- !u!4 &705507995
Transform:
  m_ObjectHideFlags: 0
  m_CorrespondingSourceObject: {fileID: 0}
  m_PrefabInstance: {fileID: 0}
  m_PrefabAsset: {fileID: 0}
  m_GameObject: {fileID: 705507993}
  m_LocalRotation: {x: 0.40821788, y: -0.23456968, z: 0.10938163, w: 0.8754261}
  m_LocalPosition: {x: 0, y: 3, z: 0}
  m_LocalScale: {x: 1, y: 1, z: 1}
  m_Children: []
  m_Father: {fileID: 0}
  m_RootOrder: 1
  m_LocalEulerAnglesHint: {x: 50, y: -30, z: 0}
--- !u!1001 &712109353
PrefabInstance:
  m_ObjectHideFlags: 0
  serializedVersion: 2
  m_Modification:
    m_TransformParent: {fileID: 1049686258}
    m_Modifications:
    - target: {fileID: 1802840387486672, guid: 8f38e57a49b1c844081ad6bb3c553f13, type: 3}
      propertyPath: m_Name
      value: Fruta6
      objectReference: {fileID: 0}
    - target: {fileID: 1802840387486672, guid: 8f38e57a49b1c844081ad6bb3c553f13, type: 3}
      propertyPath: m_TagString
      value: Fruta
      objectReference: {fileID: 0}
    - target: {fileID: 4785770825739254, guid: 8f38e57a49b1c844081ad6bb3c553f13, type: 3}
      propertyPath: m_RootOrder
      value: 6
      objectReference: {fileID: 0}
    - target: {fileID: 4785770825739254, guid: 8f38e57a49b1c844081ad6bb3c553f13, type: 3}
      propertyPath: m_LocalScale.x
      value: 100.00002
      objectReference: {fileID: 0}
    - target: {fileID: 4785770825739254, guid: 8f38e57a49b1c844081ad6bb3c553f13, type: 3}
      propertyPath: m_LocalPosition.x
      value: 2.13
      objectReference: {fileID: 0}
    - target: {fileID: 4785770825739254, guid: 8f38e57a49b1c844081ad6bb3c553f13, type: 3}
      propertyPath: m_LocalPosition.y
      value: 5.67
      objectReference: {fileID: 0}
    - target: {fileID: 4785770825739254, guid: 8f38e57a49b1c844081ad6bb3c553f13, type: 3}
      propertyPath: m_LocalPosition.z
      value: -0.66
      objectReference: {fileID: 0}
    - target: {fileID: 4785770825739254, guid: 8f38e57a49b1c844081ad6bb3c553f13, type: 3}
      propertyPath: m_LocalRotation.w
      value: 0.65536845
      objectReference: {fileID: 0}
    - target: {fileID: 4785770825739254, guid: 8f38e57a49b1c844081ad6bb3c553f13, type: 3}
      propertyPath: m_LocalRotation.x
      value: -0.75310755
      objectReference: {fileID: 0}
    - target: {fileID: 4785770825739254, guid: 8f38e57a49b1c844081ad6bb3c553f13, type: 3}
      propertyPath: m_LocalRotation.y
      value: 0.047470577
      objectReference: {fileID: 0}
    - target: {fileID: 4785770825739254, guid: 8f38e57a49b1c844081ad6bb3c553f13, type: 3}
      propertyPath: m_LocalRotation.z
      value: 0.032677125
      objectReference: {fileID: 0}
    - target: {fileID: 4785770825739254, guid: 8f38e57a49b1c844081ad6bb3c553f13, type: 3}
      propertyPath: m_LocalEulerAnglesHint.x
      value: -98.016
      objectReference: {fileID: 0}
    - target: {fileID: 4785770825739254, guid: 8f38e57a49b1c844081ad6bb3c553f13, type: 3}
      propertyPath: m_LocalEulerAnglesHint.y
      value: -5.3499756
      objectReference: {fileID: 0}
    - target: {fileID: 4785770825739254, guid: 8f38e57a49b1c844081ad6bb3c553f13, type: 3}
      propertyPath: m_LocalEulerAnglesHint.z
      value: 11.863998
      objectReference: {fileID: 0}
    m_RemovedComponents: []
  m_SourcePrefab: {fileID: 100100000, guid: 8f38e57a49b1c844081ad6bb3c553f13, type: 3}
--- !u!95 &740611729
Animator:
  serializedVersion: 3
  m_ObjectHideFlags: 0
  m_CorrespondingSourceObject: {fileID: 0}
  m_PrefabInstance: {fileID: 0}
  m_PrefabAsset: {fileID: 0}
  m_GameObject: {fileID: 750052215}
  m_Enabled: 1
  m_Avatar: {fileID: 9000000, guid: 87f4cc797fc57d5478defa024c8c9896, type: 3}
  m_Controller: {fileID: 0}
  m_CullingMode: 0
  m_UpdateMode: 0
  m_ApplyRootMotion: 0
  m_LinearVelocityBlending: 0
  m_WarningMessage: 
  m_HasTransformHierarchy: 1
  m_AllowConstantClipSamplingOptimization: 1
  m_KeepAnimatorControllerStateOnDisable: 0
--- !u!33 &746858913
MeshFilter:
  m_ObjectHideFlags: 0
  m_CorrespondingSourceObject: {fileID: 0}
  m_PrefabInstance: {fileID: 0}
  m_PrefabAsset: {fileID: 0}
  m_GameObject: {fileID: 750052215}
  m_Mesh: {fileID: 4300000, guid: 87f4cc797fc57d5478defa024c8c9896, type: 3}
--- !u!23 &748016799
MeshRenderer:
  m_ObjectHideFlags: 0
  m_CorrespondingSourceObject: {fileID: 0}
  m_PrefabInstance: {fileID: 0}
  m_PrefabAsset: {fileID: 0}
  m_GameObject: {fileID: 750052215}
  m_Enabled: 1
  m_CastShadows: 1
  m_ReceiveShadows: 1
  m_DynamicOccludee: 1
  m_MotionVectors: 1
  m_LightProbeUsage: 1
  m_ReflectionProbeUsage: 1
  m_RayTracingMode: 2
  m_RenderingLayerMask: 1
  m_RendererPriority: 0
  m_Materials:
  - {fileID: 2100000, guid: d8e8dee66e969664a99081752e2573ea, type: 2}
  m_StaticBatchInfo:
    firstSubMesh: 0
    subMeshCount: 0
  m_StaticBatchRoot: {fileID: 0}
  m_ProbeAnchor: {fileID: 0}
  m_LightProbeVolumeOverride: {fileID: 0}
  m_ScaleInLightmap: 1
  m_ReceiveGI: 1
  m_PreserveUVs: 0
  m_IgnoreNormalsForChartDetection: 0
  m_ImportantGI: 0
  m_StitchLightmapSeams: 1
  m_SelectedEditorRenderState: 3
  m_MinimumChartSize: 4
  m_AutoUVMaxDistance: 0.5
  m_AutoUVMaxAngle: 89
  m_LightmapParameters: {fileID: 0}
  m_SortingLayerID: 0
  m_SortingLayer: 0
  m_SortingOrder: 0
--- !u!4 &749769319
Transform:
  m_ObjectHideFlags: 0
  m_CorrespondingSourceObject: {fileID: 0}
  m_PrefabInstance: {fileID: 0}
  m_PrefabAsset: {fileID: 0}
  m_GameObject: {fileID: 750052215}
  m_LocalRotation: {x: 0.000000029802322, y: -0.000000029802322, z: 0.7071068, w: 0.7071067}
  m_LocalPosition: {x: -9.436, y: -3.597, z: 5.027}
  m_LocalScale: {x: 0.5, y: 0.04, z: 0.5}
  m_Children: []
  m_Father: {fileID: 991958371}
  m_RootOrder: 0
  m_LocalEulerAnglesHint: {x: 0, y: 0, z: 90}
--- !u!1 &750052215
GameObject:
  m_ObjectHideFlags: 0
  m_CorrespondingSourceObject: {fileID: 0}
  m_PrefabInstance: {fileID: 0}
  m_PrefabAsset: {fileID: 0}
  serializedVersion: 6
  m_Component:
  - component: {fileID: 749769319}
  - component: {fileID: 746858913}
  - component: {fileID: 748016799}
  - component: {fileID: 740611729}
  - component: {fileID: 2013678140}
  - component: {fileID: 2013678142}
  - component: {fileID: 2013678138}
  - component: {fileID: 2013678139}
  - component: {fileID: 2013678141}
  - component: {fileID: 2013678146}
  m_Layer: 0
  m_Name: Arnis
  m_TagString: Untagged
  m_Icon: {fileID: 0}
  m_NavMeshLayer: 0
  m_StaticEditorFlags: 0
  m_IsActive: 1
--- !u!1 &937145183
GameObject:
  m_ObjectHideFlags: 0
  m_CorrespondingSourceObject: {fileID: 0}
  m_PrefabInstance: {fileID: 0}
  m_PrefabAsset: {fileID: 0}
  serializedVersion: 6
  m_Component:
  - component: {fileID: 937145184}
  m_Layer: 0
  m_Name: puntos
  m_TagString: Untagged
  m_Icon: {fileID: 0}
  m_NavMeshLayer: 0
  m_StaticEditorFlags: 0
  m_IsActive: 1
--- !u!4 &937145184
Transform:
  m_ObjectHideFlags: 0
  m_CorrespondingSourceObject: {fileID: 0}
  m_PrefabInstance: {fileID: 0}
  m_PrefabAsset: {fileID: 0}
  m_GameObject: {fileID: 937145183}
  m_LocalRotation: {x: 0, y: 0, z: 0, w: 1}
  m_LocalPosition: {x: -9.138682, y: 0.836042, z: 15.559406}
  m_LocalScale: {x: 1, y: 1, z: 1}
  m_Children:
  - {fileID: 636732088}
  m_Father: {fileID: 0}
  m_RootOrder: 5
  m_LocalEulerAnglesHint: {x: 0, y: 0, z: 0}
--- !u!1001 &939257283
PrefabInstance:
  m_ObjectHideFlags: 0
  serializedVersion: 2
  m_Modification:
    m_TransformParent: {fileID: 1049686258}
    m_Modifications:
    - target: {fileID: 1763817136346132, guid: 0f3575c567ebe8241a4a6ad511fd7017, type: 3}
      propertyPath: m_Name
      value: Fruta1
      objectReference: {fileID: 0}
    - target: {fileID: 1763817136346132, guid: 0f3575c567ebe8241a4a6ad511fd7017, type: 3}
      propertyPath: m_TagString
      value: Fruta
      objectReference: {fileID: 0}
    - target: {fileID: 4228012861393828, guid: 0f3575c567ebe8241a4a6ad511fd7017, type: 3}
      propertyPath: m_RootOrder
      value: 1
      objectReference: {fileID: 0}
    - target: {fileID: 4228012861393828, guid: 0f3575c567ebe8241a4a6ad511fd7017, type: 3}
      propertyPath: m_LocalScale.x
      value: 99.999954
      objectReference: {fileID: 0}
    - target: {fileID: 4228012861393828, guid: 0f3575c567ebe8241a4a6ad511fd7017, type: 3}
      propertyPath: m_LocalPosition.x
      value: -3.98
      objectReference: {fileID: 0}
    - target: {fileID: 4228012861393828, guid: 0f3575c567ebe8241a4a6ad511fd7017, type: 3}
      propertyPath: m_LocalPosition.y
      value: 5.52
      objectReference: {fileID: 0}
    - target: {fileID: 4228012861393828, guid: 0f3575c567ebe8241a4a6ad511fd7017, type: 3}
      propertyPath: m_LocalPosition.z
      value: 0.28
      objectReference: {fileID: 0}
    - target: {fileID: 4228012861393828, guid: 0f3575c567ebe8241a4a6ad511fd7017, type: 3}
      propertyPath: m_LocalRotation.w
      value: 0.75250477
      objectReference: {fileID: 0}
    - target: {fileID: 4228012861393828, guid: 0f3575c567ebe8241a4a6ad511fd7017, type: 3}
      propertyPath: m_LocalRotation.x
      value: -0.65854454
      objectReference: {fileID: 0}
    - target: {fileID: 4228012861393828, guid: 0f3575c567ebe8241a4a6ad511fd7017, type: 3}
      propertyPath: m_LocalRotation.y
      value: 0.006147298
      objectReference: {fileID: 0}
    - target: {fileID: 4228012861393828, guid: 0f3575c567ebe8241a4a6ad511fd7017, type: 3}
      propertyPath: m_LocalRotation.z
      value: -0.0042359508
      objectReference: {fileID: 0}
    - target: {fileID: 4228012861393828, guid: 0f3575c567ebe8241a4a6ad511fd7017, type: 3}
      propertyPath: m_LocalEulerAnglesHint.x
      value: -82.33501
      objectReference: {fileID: 0}
    - target: {fileID: 4228012861393828, guid: 0f3575c567ebe8241a4a6ad511fd7017, type: 3}
      propertyPath: m_LocalEulerAnglesHint.y
      value: 6.3840003
      objectReference: {fileID: 0}
    - target: {fileID: 4228012861393828, guid: 0f3575c567ebe8241a4a6ad511fd7017, type: 3}
      propertyPath: m_LocalEulerAnglesHint.z
      value: -6.228
      objectReference: {fileID: 0}
    m_RemovedComponents: []
  m_SourcePrefab: {fileID: 100100000, guid: 0f3575c567ebe8241a4a6ad511fd7017, type: 3}
--- !u!1 &991958370
GameObject:
  m_ObjectHideFlags: 0
  m_CorrespondingSourceObject: {fileID: 0}
  m_PrefabInstance: {fileID: 0}
  m_PrefabAsset: {fileID: 0}
  serializedVersion: 6
  m_Component:
  - component: {fileID: 991958371}
  m_Layer: 0
  m_Name: Agarrable
  m_TagString: Untagged
  m_Icon: {fileID: 0}
  m_NavMeshLayer: 0
  m_StaticEditorFlags: 0
  m_IsActive: 1
--- !u!4 &991958371
Transform:
  m_ObjectHideFlags: 0
  m_CorrespondingSourceObject: {fileID: 0}
  m_PrefabInstance: {fileID: 0}
  m_PrefabAsset: {fileID: 0}
  m_GameObject: {fileID: 991958370}
  m_LocalRotation: {x: 0, y: 0, z: 0, w: 1}
  m_LocalPosition: {x: 2.3974738, y: 4.17581, z: 10.508282}
  m_LocalScale: {x: 1, y: 1, z: 1}
  m_Children:
  - {fileID: 749769319}
  m_Father: {fileID: 0}
  m_RootOrder: 4
  m_LocalEulerAnglesHint: {x: 0, y: 0, z: 0}
--- !u!1 &1021320557 stripped
GameObject:
  m_CorrespondingSourceObject: {fileID: 1125202155953082, guid: 573bb482e4baeec4386587db7cc07515,
    type: 3}
  m_PrefabInstance: {fileID: 1056632545}
  m_PrefabAsset: {fileID: 0}
--- !u!4 &1021320558 stripped
Transform:
  m_CorrespondingSourceObject: {fileID: 4265479714197036, guid: 573bb482e4baeec4386587db7cc07515,
    type: 3}
  m_PrefabInstance: {fileID: 1056632545}
  m_PrefabAsset: {fileID: 0}
--- !u!64 &1021320559
MeshCollider:
  m_ObjectHideFlags: 0
  m_CorrespondingSourceObject: {fileID: 0}
  m_PrefabInstance: {fileID: 0}
  m_PrefabAsset: {fileID: 0}
  m_GameObject: {fileID: 1021320557}
  m_Material: {fileID: 0}
  m_IsTrigger: 0
  m_Enabled: 1
  serializedVersion: 4
  m_Convex: 1
  m_CookingOptions: 30
  m_Mesh: {fileID: 4300008, guid: 3f4d2118f6a772542a1635ef5bfa6982, type: 3}
--- !u!54 &1021320562
Rigidbody:
  m_ObjectHideFlags: 0
  m_CorrespondingSourceObject: {fileID: 0}
  m_PrefabInstance: {fileID: 0}
  m_PrefabAsset: {fileID: 0}
  m_GameObject: {fileID: 1021320557}
  serializedVersion: 2
  m_Mass: 1
  m_Drag: 0
  m_AngularDrag: 0.05
  m_UseGravity: 1
  m_IsKinematic: 0
  m_Interpolate: 0
  m_Constraints: 14
  m_CollisionDetection: 0
--- !u!1 &1049686256
GameObject:
  m_ObjectHideFlags: 0
  m_CorrespondingSourceObject: {fileID: 0}
  m_PrefabInstance: {fileID: 0}
  m_PrefabAsset: {fileID: 0}
  serializedVersion: 6
  m_Component:
  - component: {fileID: 1049686258}
  - component: {fileID: 1049686257}
  m_Layer: 0
  m_Name: fruta
  m_TagString: Fruta
  m_Icon: {fileID: 0}
  m_NavMeshLayer: 0
  m_StaticEditorFlags: 0
  m_IsActive: 1
--- !u!114 &1049686257
MonoBehaviour:
  m_ObjectHideFlags: 0
  m_CorrespondingSourceObject: {fileID: 0}
  m_PrefabInstance: {fileID: 0}
  m_PrefabAsset: {fileID: 0}
  m_GameObject: {fileID: 1049686256}
  m_Enabled: 1
  m_EditorHideFlags: 0
  m_Script: {fileID: 11500000, guid: ec8d0a073fa4f7544865be5dca7ee38c, type: 3}
  m_Name: 
  m_EditorClassIdentifier: 
  Camera: {fileID: 36951046}
  validador: 0
  detector: {fileID: 1930849225}
  Score: {fileID: 1372587417}
--- !u!4 &1049686258
Transform:
  m_ObjectHideFlags: 0
  m_CorrespondingSourceObject: {fileID: 0}
  m_PrefabInstance: {fileID: 0}
  m_PrefabAsset: {fileID: 0}
  m_GameObject: {fileID: 1049686256}
  m_LocalRotation: {x: 0, y: 0, z: 0, w: 1}
  m_LocalPosition: {x: -7.345704, y: 0.798, z: 16.965}
  m_LocalScale: {x: 0.09, y: 0.09, z: 0.09}
  m_Children:
  - {fileID: 1930849226}
  - {fileID: 2020607679}
  - {fileID: 1191794226}
  - {fileID: 1021320558}
  - {fileID: 1668267255}
  - {fileID: 701042841}
  - {fileID: 442515867}
  - {fileID: 1781099774}
  m_Father: {fileID: 0}
  m_RootOrder: 3
  m_LocalEulerAnglesHint: {x: 0, y: 0, z: 0}
--- !u!1001 &1056632545
PrefabInstance:
  m_ObjectHideFlags: 0
  serializedVersion: 2
  m_Modification:
    m_TransformParent: {fileID: 1049686258}
    m_Modifications:
    - target: {fileID: 1125202155953082, guid: 573bb482e4baeec4386587db7cc07515, type: 3}
      propertyPath: m_Name
      value: Fruta3
      objectReference: {fileID: 0}
    - target: {fileID: 1125202155953082, guid: 573bb482e4baeec4386587db7cc07515, type: 3}
      propertyPath: m_TagString
      value: Fruta
      objectReference: {fileID: 0}
    - target: {fileID: 4265479714197036, guid: 573bb482e4baeec4386587db7cc07515, type: 3}
      propertyPath: m_RootOrder
      value: 3
      objectReference: {fileID: 0}
    - target: {fileID: 4265479714197036, guid: 573bb482e4baeec4386587db7cc07515, type: 3}
      propertyPath: m_LocalScale.x
      value: 99.999954
      objectReference: {fileID: 0}
    - target: {fileID: 4265479714197036, guid: 573bb482e4baeec4386587db7cc07515, type: 3}
      propertyPath: m_LocalPosition.x
      value: 3.64
      objectReference: {fileID: 0}
    - target: {fileID: 4265479714197036, guid: 573bb482e4baeec4386587db7cc07515, type: 3}
      propertyPath: m_LocalPosition.y
      value: 3.77
      objectReference: {fileID: 0}
    - target: {fileID: 4265479714197036, guid: 573bb482e4baeec4386587db7cc07515, type: 3}
      propertyPath: m_LocalPosition.z
      value: -0.04
      objectReference: {fileID: 0}
    - target: {fileID: 4265479714197036, guid: 573bb482e4baeec4386587db7cc07515, type: 3}
      propertyPath: m_LocalRotation.w
      value: 0.75250477
      objectReference: {fileID: 0}
    - target: {fileID: 4265479714197036, guid: 573bb482e4baeec4386587db7cc07515, type: 3}
      propertyPath: m_LocalRotation.x
      value: -0.65854454
      objectReference: {fileID: 0}
    - target: {fileID: 4265479714197036, guid: 573bb482e4baeec4386587db7cc07515, type: 3}
      propertyPath: m_LocalRotation.y
      value: 0.006147298
      objectReference: {fileID: 0}
    - target: {fileID: 4265479714197036, guid: 573bb482e4baeec4386587db7cc07515, type: 3}
      propertyPath: m_LocalRotation.z
      value: -0.0042359508
      objectReference: {fileID: 0}
    - target: {fileID: 4265479714197036, guid: 573bb482e4baeec4386587db7cc07515, type: 3}
      propertyPath: m_LocalEulerAnglesHint.x
      value: -82.33501
      objectReference: {fileID: 0}
    - target: {fileID: 4265479714197036, guid: 573bb482e4baeec4386587db7cc07515, type: 3}
      propertyPath: m_LocalEulerAnglesHint.y
      value: 6.3840003
      objectReference: {fileID: 0}
    - target: {fileID: 4265479714197036, guid: 573bb482e4baeec4386587db7cc07515, type: 3}
      propertyPath: m_LocalEulerAnglesHint.z
      value: -6.228
      objectReference: {fileID: 0}
    m_RemovedComponents: []
  m_SourcePrefab: {fileID: 100100000, guid: 573bb482e4baeec4386587db7cc07515, type: 3}
--- !u!1 &1191794225 stripped
GameObject:
  m_CorrespondingSourceObject: {fileID: 1541859410316496, guid: 4fe5a7bcbee1651418ea031a87ff53e4,
    type: 3}
  m_PrefabInstance: {fileID: 1987163828}
  m_PrefabAsset: {fileID: 0}
--- !u!4 &1191794226 stripped
Transform:
  m_CorrespondingSourceObject: {fileID: 4635515559360632, guid: 4fe5a7bcbee1651418ea031a87ff53e4,
    type: 3}
  m_PrefabInstance: {fileID: 1987163828}
  m_PrefabAsset: {fileID: 0}
--- !u!64 &1191794227
MeshCollider:
  m_ObjectHideFlags: 0
  m_CorrespondingSourceObject: {fileID: 0}
  m_PrefabInstance: {fileID: 0}
  m_PrefabAsset: {fileID: 0}
  m_GameObject: {fileID: 1191794225}
  m_Material: {fileID: 0}
  m_IsTrigger: 0
  m_Enabled: 1
  serializedVersion: 4
  m_Convex: 1
  m_CookingOptions: 30
  m_Mesh: {fileID: 4300010, guid: 3f4d2118f6a772542a1635ef5bfa6982, type: 3}
--- !u!54 &1191794230
Rigidbody:
  m_ObjectHideFlags: 0
  m_CorrespondingSourceObject: {fileID: 0}
  m_PrefabInstance: {fileID: 0}
  m_PrefabAsset: {fileID: 0}
  m_GameObject: {fileID: 1191794225}
  serializedVersion: 2
  m_Mass: 1
  m_Drag: 0
  m_AngularDrag: 0.05
  m_UseGravity: 1
  m_IsKinematic: 0
  m_Interpolate: 0
  m_Constraints: 14
  m_CollisionDetection: 0
--- !u!1 &1235691445 stripped
GameObject:
  m_CorrespondingSourceObject: {fileID: 1950516498552850, guid: 5e93b18aeba68324cb0c6196b3791c1d,
    type: 3}
  m_PrefabInstance: {fileID: 2052053090}
  m_PrefabAsset: {fileID: 0}
--- !u!1 &1372587417
GameObject:
  m_ObjectHideFlags: 0
  m_CorrespondingSourceObject: {fileID: 0}
  m_PrefabInstance: {fileID: 0}
  m_PrefabAsset: {fileID: 0}
  serializedVersion: 6
  m_Component:
  - component: {fileID: 1372587418}
  - component: {fileID: 1372587420}
  - component: {fileID: 1372587419}
  - component: {fileID: 1372587421}
  m_Layer: 5
  m_Name: Text (TMP)
  m_TagString: Untagged
  m_Icon: {fileID: 0}
  m_NavMeshLayer: 0
  m_StaticEditorFlags: 0
  m_IsActive: 1
--- !u!224 &1372587418
RectTransform:
  m_ObjectHideFlags: 0
  m_CorrespondingSourceObject: {fileID: 0}
  m_PrefabInstance: {fileID: 0}
  m_PrefabAsset: {fileID: 0}
  m_GameObject: {fileID: 1372587417}
  m_LocalRotation: {x: 0, y: 0, z: 0, w: 1}
  m_LocalPosition: {x: 0, y: 0, z: 0}
  m_LocalScale: {x: 1, y: 1, z: 1}
  m_Children: []
  m_Father: {fileID: 636732088}
  m_RootOrder: 0
  m_LocalEulerAnglesHint: {x: 0, y: 0, z: 0}
  m_AnchorMin: {x: 0.5, y: 0.5}
  m_AnchorMax: {x: 0.5, y: 0.5}
  m_AnchoredPosition: {x: -174, y: 231}
  m_SizeDelta: {x: 200, y: 50}
  m_Pivot: {x: 0.5, y: 0.5}
--- !u!114 &1372587419
MonoBehaviour:
  m_ObjectHideFlags: 0
  m_CorrespondingSourceObject: {fileID: 0}
  m_PrefabInstance: {fileID: 0}
  m_PrefabAsset: {fileID: 0}
  m_GameObject: {fileID: 1372587417}
  m_Enabled: 1
  m_EditorHideFlags: 0
  m_Script: {fileID: 11500000, guid: f4688fdb7df04437aeb418b961361dc5, type: 3}
  m_Name: 
  m_EditorClassIdentifier: 
  m_Material: {fileID: 0}
  m_Color: {r: 1, g: 1, b: 1, a: 1}
  m_RaycastTarget: 1
  m_Maskable: 1
  m_OnCullStateChanged:
    m_PersistentCalls:
      m_Calls: []
  m_text: 'Score:'
  m_isRightToLeft: 0
  m_fontAsset: {fileID: 11400000, guid: 8f586378b4e144a9851e7b34d9b748ee, type: 2}
  m_sharedMaterial: {fileID: 2180264, guid: 8f586378b4e144a9851e7b34d9b748ee, type: 2}
  m_fontSharedMaterials: []
  m_fontMaterial: {fileID: 0}
  m_fontMaterials: []
  m_fontColor32:
    serializedVersion: 2
    rgba: 4294967295
  m_fontColor: {r: 1, g: 1, b: 1, a: 1}
  m_enableVertexGradient: 0
  m_colorMode: 3
  m_fontColorGradient:
    topLeft: {r: 1, g: 1, b: 1, a: 1}
    topRight: {r: 1, g: 1, b: 1, a: 1}
    bottomLeft: {r: 1, g: 1, b: 1, a: 1}
    bottomRight: {r: 1, g: 1, b: 1, a: 1}
  m_fontColorGradientPreset: {fileID: 0}
  m_spriteAsset: {fileID: 0}
  m_tintAllSprites: 0
  m_StyleSheet: {fileID: 0}
  m_TextStyleHashCode: 2194
  m_overrideHtmlColors: 0
  m_faceColor:
    serializedVersion: 2
    rgba: 4294967295
  m_fontSize: 36
  m_fontSizeBase: 36
  m_fontWeight: 400
  m_enableAutoSizing: 0
  m_fontSizeMin: 18
  m_fontSizeMax: 72
  m_fontStyle: 0
  m_HorizontalAlignment: 1
  m_VerticalAlignment: 256
  m_textAlignment: 65535
  m_characterSpacing: 0
  m_wordSpacing: 0
  m_lineSpacing: 0
  m_lineSpacingMax: 0
  m_paragraphSpacing: 0
  m_charWidthMaxAdj: 0
  m_enableWordWrapping: 1
  m_wordWrappingRatios: 0.4
  m_overflowMode: 0
  m_linkedTextComponent: {fileID: 0}
  parentLinkedComponent: {fileID: 0}
  m_enableKerning: 1
  m_enableExtraPadding: 0
  checkPaddingRequired: 0
  m_isRichText: 1
  m_parseCtrlCharacters: 1
  m_isOrthographic: 1
  m_isCullingEnabled: 0
  m_horizontalMapping: 0
  m_verticalMapping: 0
  m_uvLineOffset: 0
  m_geometrySortingOrder: 0
  m_IsTextObjectScaleStatic: 0
  m_VertexBufferAutoSizeReduction: 0
  m_useMaxVisibleDescender: 1
  m_pageToDisplay: 1
  m_margin: {x: 0, y: 0, z: 0, w: 0}
  m_isUsingLegacyAnimationComponent: 0
  m_isVolumetricText: 0
  m_hasFontAssetChanged: 0
  m_baseMaterial: {fileID: 0}
  m_maskOffset: {x: 0, y: 0, z: 0, w: 0}
--- !u!222 &1372587420
CanvasRenderer:
  m_ObjectHideFlags: 0
  m_CorrespondingSourceObject: {fileID: 0}
  m_PrefabInstance: {fileID: 0}
  m_PrefabAsset: {fileID: 0}
  m_GameObject: {fileID: 1372587417}
  m_CullTransparentMesh: 0
--- !u!114 &1372587421
MonoBehaviour:
  m_ObjectHideFlags: 0
  m_CorrespondingSourceObject: {fileID: 0}
  m_PrefabInstance: {fileID: 0}
  m_PrefabAsset: {fileID: 0}
  m_GameObject: {fileID: 1372587417}
  m_Enabled: 1
  m_EditorHideFlags: 0
  m_Script: {fileID: 11500000, guid: 81727e4fe69ae87449f6049f6dded2a2, type: 3}
  m_Name: 
  m_EditorClassIdentifier: 
  TextScore: {fileID: 1372587419}
--- !u!1 &1668267254 stripped
GameObject:
  m_CorrespondingSourceObject: {fileID: 1829371231341652, guid: 426b44a7575f71e479fab4f4e8431989,
    type: 3}
  m_PrefabInstance: {fileID: 183214062}
  m_PrefabAsset: {fileID: 0}
--- !u!4 &1668267255 stripped
Transform:
  m_CorrespondingSourceObject: {fileID: 4411128782263238, guid: 426b44a7575f71e479fab4f4e8431989,
    type: 3}
  m_PrefabInstance: {fileID: 183214062}
  m_PrefabAsset: {fileID: 0}
--- !u!64 &1668267256
MeshCollider:
  m_ObjectHideFlags: 0
  m_CorrespondingSourceObject: {fileID: 0}
  m_PrefabInstance: {fileID: 0}
  m_PrefabAsset: {fileID: 0}
  m_GameObject: {fileID: 1668267254}
  m_Material: {fileID: 0}
  m_IsTrigger: 0
  m_Enabled: 1
  serializedVersion: 4
  m_Convex: 1
  m_CookingOptions: 30
  m_Mesh: {fileID: 4300016, guid: 3f4d2118f6a772542a1635ef5bfa6982, type: 3}
--- !u!54 &1668267259
Rigidbody:
  m_ObjectHideFlags: 0
  m_CorrespondingSourceObject: {fileID: 0}
  m_PrefabInstance: {fileID: 0}
  m_PrefabAsset: {fileID: 0}
  m_GameObject: {fileID: 1668267254}
  serializedVersion: 2
  m_Mass: 1
  m_Drag: 0
  m_AngularDrag: 0.05
  m_UseGravity: 1
  m_IsKinematic: 0
  m_Interpolate: 0
  m_Constraints: 14
  m_CollisionDetection: 0
--- !u!1 &1781099773
GameObject:
  m_ObjectHideFlags: 0
  m_CorrespondingSourceObject: {fileID: 0}
  m_PrefabInstance: {fileID: 0}
  m_PrefabAsset: {fileID: 0}
  serializedVersion: 6
  m_Component:
  - component: {fileID: 1781099774}
  - component: {fileID: 1781099775}
  - component: {fileID: 1781099776}
  m_Layer: 0
  m_Name: Limite
  m_TagString: Untagged
  m_Icon: {fileID: 0}
  m_NavMeshLayer: 0
  m_StaticEditorFlags: 0
  m_IsActive: 1
--- !u!4 &1781099774
Transform:
  m_ObjectHideFlags: 0
  m_CorrespondingSourceObject: {fileID: 0}
  m_PrefabInstance: {fileID: 0}
  m_PrefabAsset: {fileID: 0}
  m_GameObject: {fileID: 1781099773}
  m_LocalRotation: {x: 0, y: 0, z: 0, w: 1}
  m_LocalPosition: {x: 0, y: 0, z: -20.24}
  m_LocalScale: {x: 1, y: 1, z: 1}
  m_Children: []
  m_Father: {fileID: 1049686258}
  m_RootOrder: 7
  m_LocalEulerAnglesHint: {x: 0, y: 0, z: 0}
--- !u!65 &1781099775
BoxCollider:
  m_ObjectHideFlags: 0
  m_CorrespondingSourceObject: {fileID: 0}
  m_PrefabInstance: {fileID: 0}
  m_PrefabAsset: {fileID: 0}
  m_GameObject: {fileID: 1781099773}
  m_Material: {fileID: 0}
  m_IsTrigger: 1
  m_Enabled: 1
  serializedVersion: 2
  m_Size: {x: 38.79032, y: 32.69794, z: 1}
  m_Center: {x: -0.36390224, y: 10.286749, z: 0}
--- !u!114 &1781099776
MonoBehaviour:
  m_ObjectHideFlags: 0
  m_CorrespondingSourceObject: {fileID: 0}
  m_PrefabInstance: {fileID: 0}
  m_PrefabAsset: {fileID: 0}
  m_GameObject: {fileID: 1781099773}
  m_Enabled: 1
  m_EditorHideFlags: 0
  m_Script: {fileID: 11500000, guid: d91f471c0ec764a4b881616364584595, type: 3}
  m_Name: 
  m_EditorClassIdentifier: 
  perdio: 0
--- !u!1 &1910326643
GameObject:
  m_ObjectHideFlags: 0
  m_CorrespondingSourceObject: {fileID: 0}
  m_PrefabInstance: {fileID: 0}
  m_PrefabAsset: {fileID: 0}
  serializedVersion: 6
  m_Component:
  - component: {fileID: 1910326647}
  - component: {fileID: 1910326646}
  - component: {fileID: 1910326645}
  - component: {fileID: 1910326644}
  m_Layer: 0
  m_Name: Plane
  m_TagString: Untagged
  m_Icon: {fileID: 0}
  m_NavMeshLayer: 0
  m_StaticEditorFlags: 0
  m_IsActive: 1
--- !u!65 &1910326644
BoxCollider:
  m_ObjectHideFlags: 0
  m_CorrespondingSourceObject: {fileID: 0}
  m_PrefabInstance: {fileID: 0}
  m_PrefabAsset: {fileID: 0}
  m_GameObject: {fileID: 1910326643}
  m_Material: {fileID: 0}
  m_IsTrigger: 1
  m_Enabled: 1
  serializedVersion: 2
  m_Size: {x: 10, y: 2.220446e-16, z: 10}
  m_Center: {x: 0, y: 0, z: 0}
--- !u!23 &1910326645
MeshRenderer:
  m_ObjectHideFlags: 0
  m_CorrespondingSourceObject: {fileID: 0}
  m_PrefabInstance: {fileID: 0}
  m_PrefabAsset: {fileID: 0}
  m_GameObject: {fileID: 1910326643}
  m_Enabled: 1
  m_CastShadows: 1
  m_ReceiveShadows: 1
  m_DynamicOccludee: 1
  m_MotionVectors: 1
  m_LightProbeUsage: 1
  m_ReflectionProbeUsage: 1
  m_RayTracingMode: 2
  m_RenderingLayerMask: 1
  m_RendererPriority: 0
  m_Materials:
  - {fileID: 2100000, guid: da4d12c56a8efef46b81e97510034341, type: 2}
  m_StaticBatchInfo:
    firstSubMesh: 0
    subMeshCount: 0
  m_StaticBatchRoot: {fileID: 0}
  m_ProbeAnchor: {fileID: 0}
  m_LightProbeVolumeOverride: {fileID: 0}
  m_ScaleInLightmap: 1
  m_ReceiveGI: 1
  m_PreserveUVs: 0
  m_IgnoreNormalsForChartDetection: 0
  m_ImportantGI: 0
  m_StitchLightmapSeams: 1
  m_SelectedEditorRenderState: 3
  m_MinimumChartSize: 4
  m_AutoUVMaxDistance: 0.5
  m_AutoUVMaxAngle: 89
  m_LightmapParameters: {fileID: 0}
  m_SortingLayerID: 0
  m_SortingLayer: 0
  m_SortingOrder: 0
--- !u!33 &1910326646
MeshFilter:
  m_ObjectHideFlags: 0
  m_CorrespondingSourceObject: {fileID: 0}
  m_PrefabInstance: {fileID: 0}
  m_PrefabAsset: {fileID: 0}
  m_GameObject: {fileID: 1910326643}
  m_Mesh: {fileID: 10209, guid: 0000000000000000e000000000000000, type: 0}
--- !u!4 &1910326647
Transform:
  m_ObjectHideFlags: 0
  m_CorrespondingSourceObject: {fileID: 0}
  m_PrefabInstance: {fileID: 0}
  m_PrefabAsset: {fileID: 0}
  m_GameObject: {fileID: 1910326643}
  m_LocalRotation: {x: 0, y: 0, z: 0, w: 1}
  m_LocalPosition: {x: 0, y: 0, z: 0}
  m_LocalScale: {x: 10, y: 10, z: 10}
  m_Children: []
  m_Father: {fileID: 0}
  m_RootOrder: 2
  m_LocalEulerAnglesHint: {x: 0, y: 0, z: 0}
--- !u!1 &1930849225
GameObject:
  m_ObjectHideFlags: 0
  m_CorrespondingSourceObject: {fileID: 0}
  m_PrefabInstance: {fileID: 0}
  m_PrefabAsset: {fileID: 0}
  serializedVersion: 6
  m_Component:
  - component: {fileID: 1930849226}
  - component: {fileID: 1930849227}
  m_Layer: 0
  m_Name: detector
  m_TagString: Untagged
  m_Icon: {fileID: 0}
  m_NavMeshLayer: 0
  m_StaticEditorFlags: 0
  m_IsActive: 1
--- !u!4 &1930849226
Transform:
  m_ObjectHideFlags: 0
  m_CorrespondingSourceObject: {fileID: 0}
  m_PrefabInstance: {fileID: 0}
  m_PrefabAsset: {fileID: 0}
  m_GameObject: {fileID: 1930849225}
  m_LocalRotation: {x: 0, y: 0, z: 0, w: 1}
  m_LocalPosition: {x: 1.94, y: 0.4, z: -15.54}
  m_LocalScale: {x: 1, y: 1, z: 1}
  m_Children: []
  m_Father: {fileID: 1049686258}
  m_RootOrder: 0
  m_LocalEulerAnglesHint: {x: 0, y: 0, z: 0}
--- !u!65 &1930849227
BoxCollider:
  m_ObjectHideFlags: 0
  m_CorrespondingSourceObject: {fileID: 0}
  m_PrefabInstance: {fileID: 0}
  m_PrefabAsset: {fileID: 0}
  m_GameObject: {fileID: 1930849225}
  m_Material: {fileID: 0}
  m_IsTrigger: 1
  m_Enabled: 1
  serializedVersion: 2
  m_Size: {x: 9.057118, y: 0.36970508, z: 2.6326497}
  m_Center: {x: 0.42645666, y: -2.185289, z: -0.20882288}
--- !u!1001 &1987163828
PrefabInstance:
  m_ObjectHideFlags: 0
  serializedVersion: 2
  m_Modification:
    m_TransformParent: {fileID: 1049686258}
    m_Modifications:
    - target: {fileID: 1541859410316496, guid: 4fe5a7bcbee1651418ea031a87ff53e4, type: 3}
      propertyPath: m_Name
      value: Fruta2
      objectReference: {fileID: 0}
    - target: {fileID: 1541859410316496, guid: 4fe5a7bcbee1651418ea031a87ff53e4, type: 3}
      propertyPath: m_TagString
      value: Fruta
      objectReference: {fileID: 0}
    - target: {fileID: 4635515559360632, guid: 4fe5a7bcbee1651418ea031a87ff53e4, type: 3}
      propertyPath: m_RootOrder
      value: 2
      objectReference: {fileID: 0}
    - target: {fileID: 4635515559360632, guid: 4fe5a7bcbee1651418ea031a87ff53e4, type: 3}
      propertyPath: m_LocalScale.x
      value: 99.999954
      objectReference: {fileID: 0}
    - target: {fileID: 4635515559360632, guid: 4fe5a7bcbee1651418ea031a87ff53e4, type: 3}
      propertyPath: m_LocalPosition.x
      value: 0.82
      objectReference: {fileID: 0}
    - target: {fileID: 4635515559360632, guid: 4fe5a7bcbee1651418ea031a87ff53e4, type: 3}
      propertyPath: m_LocalPosition.y
      value: 3.12
      objectReference: {fileID: 0}
    - target: {fileID: 4635515559360632, guid: 4fe5a7bcbee1651418ea031a87ff53e4, type: 3}
      propertyPath: m_LocalPosition.z
      value: -0.1
      objectReference: {fileID: 0}
    - target: {fileID: 4635515559360632, guid: 4fe5a7bcbee1651418ea031a87ff53e4, type: 3}
      propertyPath: m_LocalRotation.w
      value: 0.75250477
      objectReference: {fileID: 0}
    - target: {fileID: 4635515559360632, guid: 4fe5a7bcbee1651418ea031a87ff53e4, type: 3}
      propertyPath: m_LocalRotation.x
      value: -0.65854454
      objectReference: {fileID: 0}
    - target: {fileID: 4635515559360632, guid: 4fe5a7bcbee1651418ea031a87ff53e4, type: 3}
      propertyPath: m_LocalRotation.y
      value: 0.006147298
      objectReference: {fileID: 0}
    - target: {fileID: 4635515559360632, guid: 4fe5a7bcbee1651418ea031a87ff53e4, type: 3}
      propertyPath: m_LocalRotation.z
      value: -0.0042359508
      objectReference: {fileID: 0}
    - target: {fileID: 4635515559360632, guid: 4fe5a7bcbee1651418ea031a87ff53e4, type: 3}
      propertyPath: m_LocalEulerAnglesHint.x
      value: -82.33501
      objectReference: {fileID: 0}
    - target: {fileID: 4635515559360632, guid: 4fe5a7bcbee1651418ea031a87ff53e4, type: 3}
      propertyPath: m_LocalEulerAnglesHint.y
      value: 6.3840003
      objectReference: {fileID: 0}
    - target: {fileID: 4635515559360632, guid: 4fe5a7bcbee1651418ea031a87ff53e4, type: 3}
      propertyPath: m_LocalEulerAnglesHint.z
      value: -6.228
      objectReference: {fileID: 0}
    m_RemovedComponents: []
  m_SourcePrefab: {fileID: 100100000, guid: 4fe5a7bcbee1651418ea031a87ff53e4, type: 3}
--- !u!114 &2013678138
MonoBehaviour:
  m_ObjectHideFlags: 0
  m_CorrespondingSourceObject: {fileID: 0}
  m_PrefabInstance: {fileID: 0}
  m_PrefabAsset: {fileID: 0}
  m_GameObject: {fileID: 750052215}
  m_Enabled: 1
  m_EditorHideFlags: 0
  m_Script: {fileID: 11500000, guid: 783750eec4c41da428b7651515146d14, type: 3}
  m_Name: 
  m_EditorClassIdentifier: 
  velocityAverageFrames: 5
  angularVelocityAverageFrames: 11
  estimateOnAwake: 0
--- !u!114 &2013678139
MonoBehaviour:
  m_ObjectHideFlags: 0
  m_CorrespondingSourceObject: {fileID: 0}
  m_PrefabInstance: {fileID: 0}
  m_PrefabAsset: {fileID: 0}
  m_GameObject: {fileID: 750052215}
  m_Enabled: 1
  m_EditorHideFlags: 0
  m_Script: {fileID: 11500000, guid: ffefbea063cab884ca33e5a449e5c22c, type: 3}
  m_Name: 
  m_EditorClassIdentifier: 
  attachmentFlags: 44
  attachmentOffset: {fileID: 0}
  catchingSpeedThreshold: -1
  releaseVelocityStyle: 1
  releaseVelocityTimeOffset: -0.011
  scaleReleaseVelocity: 1.1
  scaleReleaseVelocityThreshold: -1
  scaleReleaseVelocityCurve:
    serializedVersion: 2
    m_Curve:
    - serializedVersion: 3
      time: 0
      value: 0.1
      inSlope: 0
      outSlope: 0
      tangentMode: 0
      weightedMode: 0
      inWeight: 0
      outWeight: 0
    - serializedVersion: 3
      time: 1
      value: 1
      inSlope: 0
      outSlope: 0
      tangentMode: 0
      weightedMode: 0
      inWeight: 0
      outWeight: 0
    m_PreInfinity: 2
    m_PostInfinity: 2
    m_RotationOrder: 4
  restoreOriginalParent: 0
  onPickUp:
    m_PersistentCalls:
      m_Calls: []
  onDetachFromHand:
    m_PersistentCalls:
      m_Calls: []
  onHeldUpdate:
    m_PersistentCalls:
      m_Calls: []
  interactable: {fileID: 0}
--- !u!54 &2013678140
Rigidbody:
  m_ObjectHideFlags: 0
  m_CorrespondingSourceObject: {fileID: 0}
  m_PrefabInstance: {fileID: 0}
  m_PrefabAsset: {fileID: 0}
  m_GameObject: {fileID: 750052215}
  serializedVersion: 2
  m_Mass: 5
  m_Drag: 0
  m_AngularDrag: 0.05
  m_UseGravity: 1
  m_IsKinematic: 0
  m_Interpolate: 0
  m_Constraints: 32
  m_CollisionDetection: 0
--- !u!114 &2013678141
MonoBehaviour:
  m_ObjectHideFlags: 0
  m_CorrespondingSourceObject: {fileID: 0}
  m_PrefabInstance: {fileID: 0}
  m_PrefabAsset: {fileID: 0}
  m_GameObject: {fileID: 750052215}
  m_Enabled: 1
  m_EditorHideFlags: 0
  m_Script: {fileID: 11500000, guid: b93b6a877adcbf94c89a9d6e0c0e844d, type: 3}
  m_Name: 
  m_EditorClassIdentifier: 
  activateActionSetOnAttach:
    actionSetPath: 
  hideHandOnAttach: 1
  hideSkeletonOnAttach: 0
  hideControllerOnAttach: 0
  handAnimationOnPickup: 0
  setRangeOfMotionOnPickup: -1
  useHandObjectAttachmentPoint: 1
  attachEaseIn: 0
  snapAttachEaseInCurve:
    serializedVersion: 2
    m_Curve:
    - serializedVersion: 3
      time: 0
      value: 0
      inSlope: 0
      outSlope: 0
      tangentMode: 0
      weightedMode: 0
      inWeight: 0
      outWeight: 0
    - serializedVersion: 3
      time: 1
      value: 1
      inSlope: 0
      outSlope: 0
      tangentMode: 0
      weightedMode: 0
      inWeight: 0
      outWeight: 0
    m_PreInfinity: 2
    m_PostInfinity: 2
    m_RotationOrder: 4
  snapAttachEaseInTime: 0.15
  snapAttachEaseInCompleted: 0
  skeletonPoser: {fileID: 0}
  handFollowTransform: 1
  highlightOnHover: 1
  hideHighlight: []
  hoverPriority: 0
--- !u!136 &2013678142
CapsuleCollider:
  m_ObjectHideFlags: 0
  m_CorrespondingSourceObject: {fileID: 0}
  m_PrefabInstance: {fileID: 0}
  m_PrefabAsset: {fileID: 0}
  m_GameObject: {fileID: 750052215}
  m_Material: {fileID: 0}
  m_IsTrigger: 0
  m_Enabled: 1
  m_Radius: 0.022054315
  m_Height: 4.5562897
  m_Direction: 1
  m_Center: {x: -0.038450476, y: 2.734767, z: 0.037377857}
--- !u!114 &2013678146
MonoBehaviour:
  m_ObjectHideFlags: 0
  m_CorrespondingSourceObject: {fileID: 0}
  m_PrefabInstance: {fileID: 0}
  m_PrefabAsset: {fileID: 0}
  m_GameObject: {fileID: 750052215}
  m_Enabled: 1
  m_EditorHideFlags: 0
  m_Script: {fileID: 11500000, guid: b8c3547bd6da8004aaf0784b5650f174, type: 3}
  m_Name: 
  m_EditorClassIdentifier: 
  Seleccion: 0
  Izquierdo: {fileID: 0}
  derecho: {fileID: 0}
  palo: {fileID: 750052215}
  frutas: {fileID: 1049686256}
  mesa: {fileID: 1235691445}
  detector: {fileID: 1930849225}
--- !u!1 &2020607678 stripped
GameObject:
  m_CorrespondingSourceObject: {fileID: 1763817136346132, guid: 0f3575c567ebe8241a4a6ad511fd7017,
    type: 3}
  m_PrefabInstance: {fileID: 939257283}
  m_PrefabAsset: {fileID: 0}
--- !u!4 &2020607679 stripped
Transform:
  m_CorrespondingSourceObject: {fileID: 4228012861393828, guid: 0f3575c567ebe8241a4a6ad511fd7017,
    type: 3}
  m_PrefabInstance: {fileID: 939257283}
  m_PrefabAsset: {fileID: 0}
--- !u!64 &2020607680
MeshCollider:
  m_ObjectHideFlags: 0
  m_CorrespondingSourceObject: {fileID: 0}
  m_PrefabInstance: {fileID: 0}
  m_PrefabAsset: {fileID: 0}
  m_GameObject: {fileID: 2020607678}
  m_Material: {fileID: 0}
  m_IsTrigger: 0
  m_Enabled: 1
  serializedVersion: 4
  m_Convex: 1
  m_CookingOptions: 30
  m_Mesh: {fileID: 4300006, guid: 3f4d2118f6a772542a1635ef5bfa6982, type: 3}
--- !u!54 &2020607683
Rigidbody:
  m_ObjectHideFlags: 0
  m_CorrespondingSourceObject: {fileID: 0}
  m_PrefabInstance: {fileID: 0}
  m_PrefabAsset: {fileID: 0}
  m_GameObject: {fileID: 2020607678}
  serializedVersion: 2
  m_Mass: 1
  m_Drag: 0
  m_AngularDrag: 0.05
  m_UseGravity: 1
  m_IsKinematic: 0
  m_Interpolate: 0
  m_Constraints: 14
  m_CollisionDetection: 0
--- !u!1001 &2052053090
PrefabInstance:
  m_ObjectHideFlags: 0
  serializedVersion: 2
  m_Modification:
    m_TransformParent: {fileID: 0}
    m_Modifications:
    - target: {fileID: 1950516498552850, guid: 5e93b18aeba68324cb0c6196b3791c1d, type: 3}
      propertyPath: m_Name
      value: Mesa
      objectReference: {fileID: 0}
    - target: {fileID: 4896801035141906, guid: 5e93b18aeba68324cb0c6196b3791c1d, type: 3}
      propertyPath: m_RootOrder
      value: 0
      objectReference: {fileID: 0}
    - target: {fileID: 4896801035141906, guid: 5e93b18aeba68324cb0c6196b3791c1d, type: 3}
      propertyPath: m_LocalScale.x
      value: 10
      objectReference: {fileID: 0}
    - target: {fileID: 4896801035141906, guid: 5e93b18aeba68324cb0c6196b3791c1d, type: 3}
      propertyPath: m_LocalScale.y
      value: 10
      objectReference: {fileID: 0}
    - target: {fileID: 4896801035141906, guid: 5e93b18aeba68324cb0c6196b3791c1d, type: 3}
      propertyPath: m_LocalScale.z
      value: 10
      objectReference: {fileID: 0}
    - target: {fileID: 4896801035141906, guid: 5e93b18aeba68324cb0c6196b3791c1d, type: 3}
      propertyPath: m_LocalPosition.x
      value: -7.192
      objectReference: {fileID: 0}
    - target: {fileID: 4896801035141906, guid: 5e93b18aeba68324cb0c6196b3791c1d, type: 3}
      propertyPath: m_LocalPosition.y
      value: 0.196
      objectReference: {fileID: 0}
    - target: {fileID: 4896801035141906, guid: 5e93b18aeba68324cb0c6196b3791c1d, type: 3}
      propertyPath: m_LocalPosition.z
      value: 15.531
      objectReference: {fileID: 0}
    - target: {fileID: 4896801035141906, guid: 5e93b18aeba68324cb0c6196b3791c1d, type: 3}
      propertyPath: m_LocalRotation.w
      value: 0.7134169
      objectReference: {fileID: 0}
    - target: {fileID: 4896801035141906, guid: 5e93b18aeba68324cb0c6196b3791c1d, type: 3}
      propertyPath: m_LocalRotation.x
      value: -0.7006924
      objectReference: {fileID: 0}
    - target: {fileID: 4896801035141906, guid: 5e93b18aeba68324cb0c6196b3791c1d, type: 3}
      propertyPath: m_LocalRotation.y
      value: 0.0016915587
      objectReference: {fileID: 0}
    - target: {fileID: 4896801035141906, guid: 5e93b18aeba68324cb0c6196b3791c1d, type: 3}
      propertyPath: m_LocalRotation.z
      value: -0.007981836
      objectReference: {fileID: 0}
    - target: {fileID: 4896801035141906, guid: 5e93b18aeba68324cb0c6196b3791c1d, type: 3}
      propertyPath: m_LocalEulerAnglesHint.x
      value: -88.705
      objectReference: {fileID: 0}
    - target: {fileID: 4896801035141906, guid: 5e93b18aeba68324cb0c6196b3791c1d, type: 3}
      propertyPath: m_LocalEulerAnglesHint.y
      value: -323.012
      objectReference: {fileID: 0}
    - target: {fileID: 4896801035141906, guid: 5e93b18aeba68324cb0c6196b3791c1d, type: 3}
      propertyPath: m_LocalEulerAnglesHint.z
      value: 322.502
      objectReference: {fileID: 0}
    - target: {fileID: 64131083640584606, guid: 5e93b18aeba68324cb0c6196b3791c1d,
        type: 3}
      propertyPath: m_Convex
      value: 1
      objectReference: {fileID: 0}
    m_RemovedComponents: []
  m_SourcePrefab: {fileID: 100100000, guid: 5e93b18aeba68324cb0c6196b3791c1d, type: 3}
